Julia Silge - #TidyTuesday hotel bookings and recipes
…
hotel_stays

## # A tibble: 75,166 x 29
##    hotel lead_time arrival_date_ye… arrival_date_mo… arrival_date_we…
##    <chr>     <dbl>            <dbl> <chr>                       <dbl>
##  1 Reso…       342             2015 July                           27
##  2 Reso…       737             2015 July                           27
##  3 Reso…         7             2015 July                           27
##  4 Reso…        13             2015 July                           27
##  5 Reso…        14             2015 July                           27
##  6 Reso…        14             2015 July                           27
##  7 Reso…         0             2015 July                           27
##  8 Reso…         9             2015 July                           27
##  9 Reso…        35             2015 July                           27
## 10 Reso…        68             2015 July                           27
## # … with 75,156 more rows, and 24 more variables:
## #   arrival_date_day_of_month <dbl>, stays_in_weekend_nights <dbl>,
## #   stays_in_week_nights <dbl>, adults <dbl>, children <chr>, meal <chr>,
## #   country <chr>, market_segment <chr>, distribution_channel <chr>,
## #   is_repeated_guest <dbl>, previous_cancellations <dbl>,
## #   previous_bookings_not_canceled <dbl>, reserved_room_type <chr>,
## #   assigned_room_type <chr>, booking_changes <dbl>, deposit_type <chr>,
## #   agent <chr>, company <chr>, days_in_waiting_list <dbl>,
## #   customer_type <chr>, adr <dbl>, required_car_parking_spaces <chr>,
…
We trained these models on the downsampled training data; we have not touched the testing data.

Evaluate models

To evaluate these models, let’s build a validation set. We can build a set of Monte Carlo splits from the downsampled training data (juice(hotel_rec)) and use this set of resamples to estimate the performance of our two models using the fit_resamples() function. This function does not do any tuning of the model parameters; in fact, it does not even keep the models it trains. This function is used for computing performance metrics across some set of resamples like our validation splits. It will fit a model such as knn_spec to each resample and evaluate on the heldout bit from each resample, and then we can collect_metrics() from the result.

set.seed(1234)
validation_splits <- mc_cv(juice(hotel_rec), prop = 0.9, strata = children)
validation_splits

## # # Monte Carlo cross-validation (0.9/0.1) with 25 resamples  using stratification 
## # A tibble: 25 x 2
##    splits             id        
##    <named list>       <chr>     
##  1 <split [8.3K/916]> Resample01
##  2 <split [8.3K/916]> Resample02
##  3 <split [8.3K/916]> Resample03
##  4 <split [8.3K/916]> Resample04
##  5 <split [8.3K/916]> Resample05
##  6 <split [8.3K/916]> Resample06
##  7 <split [8.3K/916]> Resample07
##  8 <split [8.3K/916]> Resample08
##  9 <split [8.3K/916]> Resample09
## 10 <split [8.3K/916]> Resample10
## # … with 15 more rows
…
