Julia Silge - Modeling salary and gender in the tech industry
…
survey_results

## # A tibble: 10,546 x 8
##    Respondent EdLevel DevType OpenSourcer YearsCodePro Gender Dependents
##         <dbl> <fct>   <chr>   <fct>              <dbl> <chr>  <chr>     
##  1          4 Bachel… Develo… Never                  1 Man    No        
##  2         22 Less t… Data o… Sometimes             18 Man    Yes       
##  3         23 Bachel… Develo… Sometimes              1 Man    No        
##  4         32 Less t… Develo… Never                  2 Man    No        
##  5         35 Bachel… Develo… Never                 14 Woman  No        
##  6         39 Bachel… Databa… Sometimes             23 Man    No        
##  7         53 Less t… Develo… Often                  3 Man    No        
##  8         60 Less t… Develo… Often                  9 Man    No        
##  9         95 Bachel… Develo… Sometimes              8 Man    Yes       
## 10        105 Bachel… Design… Sometimes              2 Woman  No        
## # … with 10,536 more rows, and 1 more variable: ConvertedComp <dbl>
…
