Julia Silge - Tidy word vectors, take 2!
…
library(tidytext)
library(widyr)

tidy_pmi <- hacker_news_text %>%
    unnest_tokens(word, text) %>%
    add_count(word) %>%
    filter(n >= 20) %>%
    select(-n) %>%
    slide_windows(quo(postID), 8) %>%
    pairwise_pmi(word, window_id)

tidy_pmi

## # A tibble: 30,853,734 x 3
##    item1 item2     pmi
##    <chr> <chr>   <dbl>
##  1 best  the    0.732 
##  2 part  the    0.501 
##  3 is    the    0.0365
##  4 that  the   -0.145 
##  5 since the   -0.0260
##  6 it's  the   -0.364 
##  7 not   the   -0.262 
##  8 in    the    0.184 
##  9 any   the   -0.643 
## 10 fonts the   -0.140 
## # ... with 30,853,724 more rows
…
Exploring results

So hooray! We have found word vectors again, a bit faster, with clearer and easier-to-understand code. I do argue that this is a real benefit of this approach; it’s based on counting, dividing, and matrix decomposition and is thus much easier to understand and implement than anything with a neural network. And the results?

nearest_synonyms <- function(df, token) {
    df %>%
        widely(~ . %*% (.[token, ]), sort = TRUE)(item1, dimension, value) %>%
        select(-item2)
}

tidy_word_vectors %>%
    nearest_synonyms("tokyo")

## # A tibble: 27,267 x 2
##    item1       value
##    <chr>       <dbl>
##  1 tokyo     0.0197 
##  2 hong      0.0145 
##  3 london    0.0144 
##  4 kong      0.0141 
##  5 paris     0.0140 
##  6 cities    0.0101 
##  7 japan     0.0100 
##  8 singapore 0.00952
##  9 los       0.00899
## 10 san       0.00860
## # ... with 27,257 more rows

tidy_word_vectors %>%
    nearest_synonyms("python")

## # A tibble: 27,267 x 2
##    item1       value
##    <chr>       <dbl>
##  1 python     0.0533
##  2 ruby       0.0309
##  3 java       0.0250
##  4 php        0.0241
##  5 c          0.0229
##  6 perl       0.0222
##  7 javascript 0.0203
##  8 django     0.0202
##  9 libraries  0.0184
## 10 languages  0.0180
## # ... with 27,257 more rows

tidy_word_vectors %>%
    nearest_synonyms("bitcoin")

## # A tibble: 27,267 x 2
##    item1         value
##    <chr>         <dbl>
##  1 bitcoin      0.0626
##  2 currency     0.0328
##  3 btc          0.0320
##  4 coins        0.0300
##  5 blockchain   0.0285
##  6 bitcoins     0.0258
##  7 mining       0.0252
##  8 transactions 0.0241
##  9 transaction  0.0235
## 10 currencies   0.0228
## # ... with 27,257 more rows

tidy_word_vectors %>%
    nearest_synonyms("women")

## # A tibble: 27,267 x 2
##    item1   value
##    <chr>   <dbl>
##  1 women  0.0648
##  2 men    0.0508
##  3 male   0.0345
##  4 female 0.0319
##  5 gender 0.0274
##  6 sex    0.0256
##  7 woman  0.0241
##  8 sexual 0.0226
##  9 males  0.0197
## 10 girls  0.0195
## # ... with 27,257 more rows

I’m still learning about how word vectors are evaluated to be able to make some kind claim about how good word vectors like these are, for realistic datasets. One way that word vectors can be evaluated is by looking at how well the vectors perform on analogy tasks, like King - Man + Woman = Queen. What are some analogies we can find in this Hacker News corpus? Let’s write a little function that will find the answer to token1 - token2 + token 3 = ???.

analogy <- function(df, token1, token2, token3) {
    df %>%
        widely(~ . %*% (.[token1, ] - .[token2, ] + .[token3, ]), sort = TRUE)(item1, dimension, value) %>%
        select(-item2)
    
}

## operating systems
tidy_word_vectors %>%
    analogy("osx", "apple", "microsoft")

## # A tibble: 27,267 x 2
##    item1      value
##    <chr>      <dbl>
##  1 windows   0.0357
##  2 microsoft 0.0281
##  3 ms        0.0245
##  4 visual    0.0195
##  5 linux     0.0188
##  6 studio    0.0178
##  7 net       0.0171
##  8 desktop   0.0164
##  9 xp        0.0163
## 10 office    0.0147
## # ... with 27,257 more rows

## countries
tidy_word_vectors %>%
    analogy("germany", "berlin", "paris")

## # A tibble: 27,267 x 2
##    item1      value
##    <chr>      <dbl>
##  1 germany   0.0320
##  2 france    0.0231
##  3 europe    0.0213
##  4 paris     0.0212
##  5 uk        0.0200
##  6 london    0.0178
##  7 eu        0.0176
##  8 spain     0.0175
##  9 italy     0.0170
## 10 countries 0.0163
## # ... with 27,257 more rows

## THOUGHT LEADERS
tidy_word_vectors %>%
    analogy("gates", "windows", "tesla")

## # A tibble: 27,267 x 2
##    item1     value
##    <chr>     <dbl>
##  1 tesla    0.0419
##  2 gates    0.0364
##  3 musk     0.0348
##  4 elon     0.0335
##  5 steve    0.0247
##  6 electric 0.0234
##  7 car      0.0234
##  8 ford     0.0228
##  9 larry    0.0222
## 10 bill     0.0219
## # ... with 27,257 more rows
…
