Julia Silge - Reordering and facetting for ggplot2
…
library(tidyverse)
library(babynames)

top_names <- babynames %>%
    filter(year >= 1950,
           year < 1990) %>%
    mutate(decade = (year %/% 10) * 10) %>%
    group_by(decade) %>%
    count(name, wt = n, sort = TRUE) %>%
    ungroup

top_names

## # A tibble: 100,527 x 3
##    decade name         n
##     <dbl> <chr>    <int>
##  1   1950 James   846042
##  2   1950 Michael 839459
##  3   1960 Michael 836934
##  4   1950 Robert  832336
##  5   1950 John    799658
##  6   1950 David   771242
##  7   1960 David   736583
##  8   1960 John    716284
##  9   1970 Michael 712722
## 10   1960 James   687905
## # … with 100,517 more rows
…
