Julia Silge - Word associations from the Small World of Words
…
The Small World of Words project focuses on word associations. You can try it out for yourself to see how it works, but the general idea is that the participant is presented with a word (from “telephone” to “journalist” to “yoga”) and is then asked to give their immediate association with that word. The project has collected more than 15 million responses to date, and is still collecting data. You can check out some pre-built visualizations the researchers have put together to explore the dataset, or you can download the data for yourself.

library(tidyverse)

swow_raw <- read_csv("SWOW-EN.R100.csv") %>%
    select(-education, -X1) %>%
    mutate(gender = case_when(gender == "Fe" ~ "Women",
                              gender == "Ma" ~ "Men",
                              gender == "X" ~ "Non-binary"),
           gender = fct_infreq(gender))

swow_raw

## # A tibble: 1,228,200 x 11
##       id participantID   age gender nativeLanguage country   created_at          cue      R1           R2     
##    <dbl>         <dbl> <dbl> <fct>  <chr>          <chr>     <dttm>              <chr>    <chr>        <chr>  
##  1    29             3    33 Women  United States  Australia 2011-08-12 02:19:38 although nevertheless yet    
##  2    30             3    33 Women  United States  Australia 2011-08-12 02:19:38 deal     no           cards  
##  3    31             3    33 Women  United States  Australia 2011-08-12 02:19:38 music    notes        band   
##  4    32             3    33 Women  United States  Australia 2011-08-12 02:19:38 inform   tell         rat on 
##  5    33             3    33 Women  United States  Australia 2011-08-12 02:19:38 way      path         via    
##  6    34             3    33 Women  United States  Australia 2011-08-12 02:19:38 none     zilch        nada   
##  7    35             3    33 Women  United States  Australia 2011-08-12 02:19:38 extra    plus         special
##  8    36             3    33 Women  United States  Australia 2011-08-12 02:19:38 will     free         future 
##  9    37             3    33 Women  United States  Australia 2011-08-12 02:19:38 paper    book         news   
## 10    38             3    33 Women  United States  Australia 2011-08-12 02:19:38 w        v            x      
##    R3        
##    <chr>     
##  1 but       
##  2 shake     
##  3 rhythm    
##  4 <NA>      
##  5 method    
##  6 zero      
##  7 additional
##  8 death     
##  9 writing   
## 10 what      
## # ... with 1,228,190 more rows
…
swow_forward <- swow_raw %>% 
    select(from = cue, to = R1, gender, age, nativeLanguage) %>%
    bind_rows(
        swow_raw %>% 
            select(from = R1, to = R2, gender, age, nativeLanguage)
    ) %>%
    bind_rows(
        swow_raw %>% 
            select(from = R2, to = R3, gender, age, nativeLanguage)
    ) %>%
    filter(!is.na(to))

swow_forward

## # A tibble: 3,403,790 x 5
##    from     to           gender   age nativeLanguage
##    <chr>    <chr>        <fct>  <dbl> <chr>         
##  1 although nevertheless Women     33 United States 
##  2 deal     no           Women     33 United States 
##  3 music    notes        Women     33 United States 
##  4 inform   tell         Women     33 United States 
##  5 way      path         Women     33 United States 
##  6 none     zilch        Women     33 United States 
##  7 extra    plus         Women     33 United States 
##  8 will     free         Women     33 United States 
##  9 paper    book         Women     33 United States 
## 10 w        v            Women     33 United States 
## # ... with 3,403,780 more rows

Now that we have all the forward associations, we can find the most common associations for any individual word with some simple dplyr operations. What about… coffee? ☕

swow_forward %>%
    filter(from == "coffee") %>%
    count(to, sort = TRUE)

## # A tibble: 711 x 2
##    to            n
##    <chr>     <int>
##  1 tea          80
##  2 milk         33
##  3 drink        31
##  4 Starbucks    28
##  5 caffeine     15
##  6 cup          15
##  7 morning      15
##  8 hot          13
##  9 chocolate    12
## 10 island       12
## # ... with 701 more rows
…
via GIPHY

Or… maybe you are in a holiday Christmas celebratory mood, and want to know what people associate with the word “Christmas”.

swow_forward %>%
    filter(from == "Christmas") %>%
    count(to, sort = TRUE)

## # A tibble: 759 x 2
##    to           n
##    <chr>    <int>
##  1 birthday    56
##  2 holiday     45
##  3 tree        43
##  4 Santa       34
##  5 snow        33
##  6 happy       31
##  7 red         29
##  8 presents    28
##  9 winter      24
## 10 Jesus       19
## # ... with 749 more rows
…
swow_freq

## # A tibble: 741 x 5
##      age to           n age_total percent
##    <dbl> <chr>    <dbl>     <dbl>   <dbl>
##  1    15 bank        47      1118 0.0420 
##  2    15 banks        7      1118 0.00626
##  3    15 bills        2      1118 0.00179
##  4    15 business    11      1118 0.00984
##  5    15 buy          7      1118 0.00626
##  6    15 car          4      1118 0.00358
##  7    15 cash        30      1118 0.0268 
##  8    15 change       5      1118 0.00447
##  9    15 charity      5      1118 0.00447
## 10    15 cheap        5      1118 0.00447
## # ... with 731 more rows
…
