Julia Silge - Opioid prescribing habits in Texas
…
opioids_tidy

## # A tibble: 1,234,622 x 6
##    County  Date       Name                        Category   Schedule Pills
##    <chr>   <date>     <chr>                       <chr>      <chr>    <dbl>
##  1 Anders… 2015-04-01 ACETAMINOPHEN WITH CODEINE… Opioid     III      37950
##  2 Anders… 2015-04-01 ACETAMINOPHEN/CAFFEINE/DIH… Opioid     III        380
##  3 Anders… 2015-04-01 ALPRAZOLAM                  Benzodiaz… IV       52914
##  4 Anders… 2015-04-01 AMITRIPTYLINE HCL/CHLORDIA… Benzodiaz… IV         180
##  5 Anders… 2015-04-01 AMPHETAMINE SULFATE         Amphetami… IV          60
##  6 Anders… 2015-04-01 ARMODAFINIL                 Stimulant  IV         824
##  7 Anders… 2015-04-01 ASPIRIN/CAFFEINE/DIHYDROCO… Opioid     III          0
##  8 Anders… 2015-04-01 BENZPHETAMINE HCL           Amphetami… III         30
##  9 Anders… 2015-04-01 BROMPHENIRAMINE MALEATE/PH… Opioid     V            0
## 10 Anders… 2015-04-01 BROMPHENIRAMINE MALEATE/PS… Opioid     III          0
## # … with 1,234,612 more rows
…
