Julia Silge - Understanding PCA using Stack Overflow data
…
Some high dimensional data

This analysis uses traffic from the past year for registered users to about 500 of the top tags on Stack Overflow. The analysis here uses 10% of registered traffic for convenience/speed but I have implemented similar analysis with all traffic and gotten about the same results.

Think of each person as a point in a high dimensional space with axes that correspond to technologies like R or JavaScript or C++. People who do similar kinds of work are close to each other in this high dimensional space. Principal component analysis will transform this high dimensional to a new ✨special✨ high dimensional space with special characteristics.

The data that I start with, after constructing an appropriate query to our databases, looks like this.

library(tidyverse)
library(scales)

tag_percents

## # A tibble: 28,791,663 x 3
##     User Tag                      Value
##    <int> <chr>                    <dbl>
##  1     1 exception-handling    0.000948
##  2     1 jsp                   0.000948
##  3     1 merge                 0.00284 
##  4     1 casting               0.00569 
##  5     1 io                    0.000948
##  6     1 twitter-bootstrap-3   0.00569 
##  7     1 sorting               0.00474 
##  8     1 mysql                 0.000948
##  9     1 svg                   0.000948
## 10     1 model-view-controller 0.000948
## # ... with 28,791,653 more rows
…
🎉

Analyzing the PCA output

I like to deal with dataframes, so the next for me is to tidy() the output of my principal component analysis. This makes it easy for me to handle the output with dplyr and make any kind of plot I can dream up with ggplot2. The output for irlba isn’t handled perfectly by broom so I will put together my own dataframe here, with just a bit of munging.

library(broom)

tidied_pca <- bind_cols(Tag = colnames(tags_scaled),
                        tidy(tags_pca$rotation)) %>%
    gather(PC, Contribution, PC1:PC64)

tidied_pca

## # A tibble: 39,232 x 3
##    Tag                   PC    Contribution
##    <chr>                 <chr>        <dbl>
##  1 exception-handling    PC1       -0.0512 
##  2 jsp                   PC1        0.00767
##  3 merge                 PC1       -0.0343 
##  4 casting               PC1       -0.0609 
##  5 io                    PC1       -0.0804 
##  6 twitter-bootstrap-3   PC1        0.0855 
##  7 sorting               PC1       -0.0491 
##  8 mysql                 PC1        0.0444 
##  9 svg                   PC1        0.0409 
## 10 model-view-controller PC1        0.0398 
## # ... with 39,222 more rows
…
Projecting the high dimensional plane

One really cool thing I ❤️ about PCA is being able to think and reason about high dimensional data. Part of that is projecting the many, many dimensions down onto a more plottable two dimensions. Let’s walk through how to do that.

What we want now is the equivalent of broom::augment(), and let’s also calculate the percent deviation explained by each component.

percent_variation <- tags_pca$sdev^2 / sum(tags_pca$sdev^2)

augmented_pca <- bind_cols(User = rownames(tags_scaled),
                           tidy(tags_pca$x))

augmented_pca

## # A tibble: 164,915 x 65
##    User     PC1    PC2    PC3     PC4     PC5    PC6    PC7   PC8    PC9
##    <chr>  <dbl>  <dbl>  <dbl>   <dbl>   <dbl>  <dbl>  <dbl> <dbl>  <dbl>
##  1 1      2.16   5.70   1.63    0.967  0.0214 -1.37  -1.98  -2.94 -0.860
##  2 2      0.350  3.38  -6.12  -10.0    1.39    0.882  5.35  -3.30 -2.73 
##  3 3      2.75  -3.91   0.801   1.73   1.24   -0.837  2.03   2.76  0.300
##  4 4      3.27  -3.37  -1.00    2.39  -3.59   -2.68   0.449 -2.82 -1.25 
##  5 5      9.44  -4.24   3.88   -1.62  -2.96    4.01  -1.32  -3.54  3.25 
##  6 6      5.47  -5.13   1.57    2.94  -0.170   0.342  3.34   6.09  1.72 
##  7 7      4.30  -0.442 -1.52    0.329 -2.13    0.908 -3.30  -5.02 -1.39 
##  8 8     -0.691  0.668 -1.76   -7.74  -2.94   -5.28  -9.71   5.28  0.732
##  9 9      3.84  -2.65   0.760   1.34   2.06   -0.927  1.35   5.11 -2.69 
## 10 10     3.23   4.13   2.81    2.68  -1.12   -1.30  -0.319 -1.23 -0.723
## # ... with 164,905 more rows, and 55 more variables: PC10 <dbl>,
## #   PC11 <dbl>, PC12 <dbl>, PC13 <dbl>, PC14 <dbl>, PC15 <dbl>,
## #   PC16 <dbl>, PC17 <dbl>, PC18 <dbl>, PC19 <dbl>, PC20 <dbl>,
## #   PC21 <dbl>, PC22 <dbl>, PC23 <dbl>, PC24 <dbl>, PC25 <dbl>,
## #   PC26 <dbl>, PC27 <dbl>, PC28 <dbl>, PC29 <dbl>, PC30 <dbl>,
## #   PC31 <dbl>, PC32 <dbl>, PC33 <dbl>, PC34 <dbl>, PC35 <dbl>,
## #   PC36 <dbl>, PC37 <dbl>, PC38 <dbl>, PC39 <dbl>, PC40 <dbl>,
## #   PC41 <dbl>, PC42 <dbl>, PC43 <dbl>, PC44 <dbl>, PC45 <dbl>,
## #   PC46 <dbl>, PC47 <dbl>, PC48 <dbl>, PC49 <dbl>, PC50 <dbl>,
…
